-----BEGIN PGP PUBLIC KEY BLOCK-----
Version: OpenPGP.js v4.10.7
Comment: https://openpgpjs.org

xjMEXllgzxYJKwYBBAHaRw8BAQdAWpgwaXMTWA2ls2fDOci+RphMx7pflH3R
YauUKH/wFsTNF2ZAZm1hYy54eXogPGZAZm1hYy54eXo+wngEEBYKACAFAl5Z
YM8GCwkHCAMCBBUICgIEFgIBAAIZAQIbAwIeAQAKCRBP0DdCtX3nJiCTAP9s
zJWpx6SB+YxuZKm284RJ8VXnyPjmaVdbr/XZobaLdAEA7ROEidpzvy8nRYXj
f4KPdr04rGgj8+ySPVHDwoY8sgHOOAReWWDPEgorBgEEAZdVAQUBAQdA3Sb/
3TA4Lal/guKYHtZRNFHeHf6c8BsAwm6JuBaf9W4DAQgHwmEEGBYIAAkFAl5Z
YM8CGwwACgkQT9A3QrV95yYm8wEAySdXo0iq+/z9we2PbqI+QtCJ8bREcvgZ
LOQdvjVOKdEA/jUhuDec2Icz1xsxtxJ8gLwJEnL/u/wk4bPV15LOxukP
=rmnb
-----END PGP PUBLIC KEY BLOCK-----
